<svg class="lds-spin" width="200px"  height="200px"  xmlns="http://www.w3.org/2000/svg" xmlns:xlink="http://www.w3.org/1999/xlink" viewBox="0 0 100 100" preserveAspectRatio="xMidYMid" style="background: none;"><g transform="translate(80,50)">
<g transform="rotate(0)">
<circle cx="0" cy="0" r="10" fill="#ed2d90" fill-opacity="1" transform="scale(0.570833 0.570833)">
  <animateTransform attributeName="transform" type="scale" begin="-0.875s" values="0.5 0.5;1 1" keyTimes="0;1" dur="1s" repeatCount="indefinite"></animateTransform>
  <animate attributeName="fill-opacity" keyTimes="0;1" dur="1s" repeatCount="indefinite" values="1;0" begin="-0.875s"></animate>
</circle>
</g>
</g><g transform="translate(71.21320343559643,71.21320343559643)">
<g transform="rotate(45)">
<circle cx="0" cy="0" r="10" fill="#ed2d90" fill-opacity="0.875" transform="scale(0.508333 0.508333)">
  <animateTransform attributeName="transform" type="scale" begin="-0.75s" values="0.5 0.5;1 1" keyTimes="0;1" dur="1s" repeatCount="indefinite"></animateTransform>
  <animate attributeName="fill-opacity" keyTimes="0;1" dur="1s" repeatCount="indefinite" values="1;0" begin="-0.75s"></animate>
</circle>
</g>
</g><g transform="translate(50,80)">
<g transform="rotate(90)">
<circle cx="0" cy="0" r="10" fill="#ed2d90" fill-opacity="0.75" transform="scale(0.945833 0.945833)">
  <animateTransform attributeName="transform" type="scale" begin="-0.625s" values="0.5 0.5;1 1" keyTimes="0;1" dur="1s" repeatCount="indefinite"></animateTransform>
  <animate attributeName="fill-opacity" keyTimes="0;1" dur="1s" repeatCount="indefinite" values="1;0" begin="-0.625s"></animate>
</circle>
</g>
</g><g transform="translate(28.786796564403577,71.21320343559643)">
<g transform="rotate(135)">
<circle cx="0" cy="0" r="10" fill="#ed2d90" fill-opacity="0.625" transform="scale(0.883333 0.883333)">
  <animateTransform attributeName="transform" type="scale" begin="-0.5s" values="0.5 0.5;1 1" keyTimes="0;1" dur="1s" repeatCount="indefinite"></animateTransform>
  <animate attributeName="fill-opacity" keyTimes="0;1" dur="1s" repeatCount="indefinite" values="1;0" begin="-0.5s"></animate>
</circle>
</g>
</g><g transform="translate(20,50.00000000000001)">
<g transform="rotate(180)">
<circle cx="0" cy="0" r="10" fill="#ed2d90" fill-opacity="0.5" transform="scale(0.820833 0.820833)">
  <animateTransform attributeName="transform" type="scale" begin="-0.375s" values="0.5 0.5;1 1" keyTimes="0;1" dur="1s" repeatCount="indefinite"></animateTransform>
  <animate attributeName="fill-opacity" keyTimes="0;1" dur="1s" repeatCount="indefinite" values="1;0" begin="-0.375s"></animate>
</circle>
</g>
</g><g transform="translate(28.78679656440357,28.786796564403577)">
<g transform="rotate(225)">
<circle cx="0" cy="0" r="10" fill="#ed2d90" fill-opacity="0.375" transform="scale(0.758333 0.758333)">
  <animateTransform attributeName="transform" type="scale" begin="-0.25s" values="0.5 0.5;1 1" keyTimes="0;1" dur="1s" repeatCount="indefinite"></animateTransform>
  <animate attributeName="fill-opacity" keyTimes="0;1" dur="1s" repeatCount="indefinite" values="1;0" begin="-0.25s"></animate>
</circle>
</g>
</g><g transform="translate(49.99999999999999,20)">
<g transform="rotate(270)">
<circle cx="0" cy="0" r="10" fill="#ed2d90" fill-opacity="0.25" transform="scale(0.695833 0.695833)">
  <animateTransform attributeName="transform" type="scale" begin="-0.125s" values="0.5 0.5;1 1" keyTimes="0;1" dur="1s" repeatCount="indefinite"></animateTransform>
  <animate attributeName="fill-opacity" keyTimes="0;1" dur="1s" repeatCount="indefinite" values="1;0" begin="-0.125s"></animate>
</circle>
</g>
</g><g transform="translate(71.21320343559643,28.78679656440357)">
<g transform="rotate(315)">
<circle cx="0" cy="0" r="10" fill="#ed2d90" fill-opacity="0.125" transform="scale(0.633333 0.633333)">
  <animateTransform attributeName="transform" type="scale" begin="0s" values="0.5 0.5;1 1" keyTimes="0;1" dur="1s" repeatCount="indefinite"></animateTransform>
  <animate attributeName="fill-opacity" keyTimes="0;1" dur="1s" repeatCount="indefinite" values="1;0" begin="0s"></animate>
</circle>
</g>
</g></svg>